Interesting ways to select dataframe columns
…
sex To import this dataset, we use palmerpenguins packages. After the penguins dataset imported, we try some intresting ways to select columns in pandas packages.

 Codes:

library("palmerpenguins")
palmerpenguins :: penguins
knitr::kable(sample_n(penguins, 5))

import seaborn as sns
penguins = sns.load_dataset("penguins")
penguins.sample(5)

 Results:

## # A tibble: 344 x 8
##    species island bill_length_mm bill_depth_mm flipper_length_…
##    <fct>   <fct>           <dbl>         <dbl>            <int>
##  1 Adelie  Torge…           39.1          18.7              181
##  2 Adelie  Torge…           39.5          17.4              186
##  3 Adelie  Torge…           40.3          18                195
##  4 Adelie  Torge…           NA            NA                 NA
##  5 Adelie  Torge…           36.7          19.3              193
##  6 Adelie  Torge…           39.3          20.6              190
##  7 Adelie  Torge…           38.9          17.8              181
##  8 Adelie  Torge…           39.2          19.6              195
##  9 Adelie  Torge…           34.1          18.1              193
## 10 Adelie  Torge…           42            20.2              190
## # … with 334 more rows, and 3 more variables:
## #   body_mass_g <int>, sex <fct>, year <int>
…
# Select 'sex' column
penguins[,'sex']
# Select two bill columns
penguins[, c('bill_length_mm',
             'bill_depth_mm')]

# Select 'sex' columns
penguins[['sex']]
# Select two bill columns
penguins[['bill_length_mm',
          'bill_depth_mm']]

 Results:

## # A tibble: 344 x 1
##    sex   
##    <fct> 
##  1 male  
##  2 female
##  3 female
##  4 <NA>  
##  5 female
##  6 male  
##  7 female
##  8 male  
##  9 <NA>  
## 10 <NA>  
## # … with 334 more rows

## # A tibble: 344 x 2
##    bill_length_mm bill_depth_mm
##             <dbl>         <dbl>
##  1           39.1          18.7
##  2           39.5          17.4
##  3           40.3          18  
##  4           NA            NA  
##  5           36.7          19.3
##  6           39.3          20.6
##  7           38.9          17.8
##  8           39.2          19.6
##  9           34.1          18.1
## 10           42            20.2
## # … with 334 more rows
…
# Select dataset that contains all columns except bill_length_mm & bill_depth_mm _Second Way                                           
penguins[penguins.columns[
                  ~penguins.columns.isin(['bill_length_mm',
                                       'bill_depth_mm'])]]

 Results:

## # A tibble: 344 x 2
##    bill_length_mm bill_depth_mm
##             <dbl>         <dbl>
##  1           39.1          18.7
##  2           39.5          17.4
##  3           40.3          18  
##  4           NA            NA  
##  5           36.7          19.3
##  6           39.3          20.6
##  7           38.9          17.8
##  8           39.2          19.6
##  9           34.1          18.1
## 10           42            20.2
## # … with 334 more rows

## # A tibble: 344 x 6
##    species island    flipper_length_mm body_mass_g sex     year
##    <fct>   <fct>                 <int>       <int> <fct>  <int>
##  1 Adelie  Torgersen               181        3750 male    2007
##  2 Adelie  Torgersen               186        3800 female  2007
##  3 Adelie  Torgersen               195        3250 female  2007
##  4 Adelie  Torgersen                NA          NA <NA>    2007
##  5 Adelie  Torgersen               193        3450 female  2007
##  6 Adelie  Torgersen               190        3650 male    2007
##  7 Adelie  Torgersen               181        3625 female  2007
##  8 Adelie  Torgersen               195        4675 male    2007
##  9 Adelie  Torgersen               193        3475 <NA>    2007
## 10 Adelie  Torgersen               190        4250 <NA>    2007
## # … with 334 more rows
…
